<?xml version="1.0" encoding="UTF-8" standalone="no"?>
<svg
   xmlns:dc="http://purl.org/dc/elements/1.1/"
   xmlns:cc="http://creativecommons.org/ns#"
   xmlns:rdf="http://www.w3.org/1999/02/22-rdf-syntax-ns#"
   xmlns:svg="http://www.w3.org/2000/svg"
   xmlns="http://www.w3.org/2000/svg"
   xmlns:sodipodi="http://sodipodi.sourceforge.net/DTD/sodipodi-0.dtd"
   xmlns:inkscape="http://www.inkscape.org/namespaces/inkscape"
   viewBox="0 0 78.75 78.75"
   version="1.1"
   x="0px"
   y="0px"
   id="svg16"
   sodipodi:docname="files.svg"
   width="75"
   height="75"
   inkscape:version="0.92.1 r15371"
   inkscape:export-filename="/home/icarito/Proyectos/JappyShell/web/files.png"
   inkscape:export-xdpi="40.959999"
   inkscape:export-ydpi="40.959999">
  <metadata
     id="metadata22">
    <rdf:RDF>
      <cc:Work
         rdf:about="">
        <dc:format>image/svg+xml</dc:format>
        <dc:type
           rdf:resource="http://purl.org/dc/dcmitype/StillImage" />
        <dc:title>Files and Folders -  Outline - 051 - Document</dc:title>
      </cc:Work>
    </rdf:RDF>
  </metadata>
  <defs
     id="defs20" />
  <sodipodi:namedview
     pagecolor="#ffffff"
     bordercolor="#666666"
     borderopacity="1"
     objecttolerance="10"
     gridtolerance="10"
     guidetolerance="10"
     inkscape:pageopacity="0"
     inkscape:pageshadow="2"
     inkscape:window-width="1440"
     inkscape:window-height="849"
     id="namedview18"
     showgrid="false"
     inkscape:zoom="2.4842105"
     inkscape:cx="48.682978"
     inkscape:cy="28.5"
     inkscape:window-x="0"
     inkscape:window-y="30"
     inkscape:window-maximized="1"
     inkscape:current-layer="svg16"
     viewbox-height="64"
     scale-x="1.05"
     inkscape:pagecheckerboard="true"
     borderlayer="false" />
  <title
     id="title2">Files and Folders -  Outline - 051 - Document</title>
  <desc
     id="desc4">Created with Sketch.</desc>
  <g
     id="g10"
     style="fill:none;fill-rule:evenodd;stroke:none;stroke-width:1"
     transform="translate(17.266664,1.4555075)">
    <g
       id="g8"
       style="fill:#000000;fill-rule:nonzero">
      <path
         d="m 44.17371,15.98907 c -0.01732,-0.11599 -0.05497,-0.228016 -0.1112,-0.33093 l -3.1e-4,-9.1e-4 -2e-4,-2.3e-4 c -0.06124,-0.100733 -0.139852,-0.189817 -0.23218,-0.26312 -0.0227,-0.01886 -0.04462,-0.03626 -0.06872,-0.05286 -0.02265,-0.01568 -0.041,-0.03607 -0.06507,-0.05 L 17.43818,0.13379 C 17.400959,0.11851437 17.362794,0.1056511 17.32392,0.09528 17.260224,0.0658189 17.19353,0.04332831 17.125,0.0282 17.000919,0.01104903 16.875064,0.0111096 16.751,0.02838 16.68124,0.04374621 16.613407,0.06679695 16.54873,0.09711 16.51098,0.10732504 16.4739,0.11990318 16.43773,0.13477 l -4.3396,2.509 -0.0041,0.00171 c -0.0095,0.00549 -0.01642,0.014 -0.0257,0.01977 -0.0077,0.00476 -0.01654,0.00647 -0.0241,0.01148 L 1.03632,9.919 C 1.00937,9.939839 0.9835181,9.962062 0.95887,9.98558 c -0.0965843,0.083431 -0.18004172,0.180943 -0.24756,0.28925 -0.0341566,0.07748 -0.0651817,0.156298 -0.093,0.23627 -0.009653,0.04677 -0.0159554,0.09417 -0.01886,0.14184 -0.006198,0.03341 -0.0106577,0.06713 -0.01336,0.101 v 42.73532 c -9.692e-5,0.35734 0.19051914,0.687567 0.5,0.86621 l 37.25736,21.51074 0.0047,0.002 c 0.04606,0.02336 0.09387,0.04308 0.143,0.059 0.07066,0.03846 0.150029,0.05809 0.23047,0.057 0.04025,0.0078 0.08093,0.01304 0.12183,0.01579 l 4.9e-4,-6e-5 4.9e-4,6e-5 c 0.175215,1.43e-4 0.347358,-0.04601 0.499,-0.13379 L 43.696,73.35449 c 0.03261,-0.02517 0.06354,-0.05245 0.09259,-0.08166 0.05609,-0.03976 0.107814,-0.08534 0.1543,-0.136 0.07749,-0.09923 0.140771,-0.208787 0.188,-0.3255 0.02085,-0.06618 0.0346,-0.134396 0.041,-0.20349 0.01063,-0.03927 0.01868,-0.07919 0.02411,-0.11951 v -56.331 c 0,-0.02692 -0.0083,-0.052 -0.01044,-0.07856 -0.0023,-0.03055 -0.0067,-0.0593 -0.01185,-0.0897 z M 16.938,2.15472 41.195,16.15656 38.84381,17.51227 14.5926,3.51074 Z m 22.90545,17.09015 2.35254,-1.3565 v 54.02221 l -2.35254,1.35761 z M 11.59394,15.167 c 6.89e-4,0.06029 -0.0047,0.120488 -0.01611,0.17969 -0.06196,-0.02019 -0.12143,-0.04737 -0.17725,-0.081 l -7.91064,-4.56739 8.104,-5.332 z M 37.84345,73.26758 2.58613,52.91211 V 12.48633 l 7.81494,4.51172 c 0.190576,0.109832 0.393269,0.197147 0.604,0.26019 0.07465,0.02246 0.147,0.02582 0.22119,0.04071 0.123781,0.02889 0.249777,0.04729 0.37665,0.055 0.01886,4.9e-4 0.0387,0.0084 0.05744,0.0084 0.103222,-0.0047 0.205903,-0.01767 0.30706,-0.03875 0.04987,-0.0079 0.10145,-0.0071 0.15021,-0.01892 0.169285,-0.03969 0.331996,-0.103478 0.48316,-0.1894 0.660771,-0.42043 1.04111,-1.166524 0.99316,-1.94824 v -9.9229 l 24.24951,14 z"
         id="path6"
         inkscape:connector-curvature="0" />
    </g>
  </g>
</svg>
